module main-page

go 1.22.2

toolchain go1.22.4

require (
	github.com/fatih/color v1.17.0
	github.com/gin-gonic/gin v1.10.0
	github.com/go-ozzo/ozzo-validation v3.6.0+incompatible
	github.com/golang-jwt/jwt/v5 v5.2.1
	github.com/grpc-ecosystem/go-grpc-middleware/v2 v2.1.0
	github.com/ilyakaznacheev/cleanenv v1.5.0
	github.com/joho/godotenv v1.5.1
	gitlab.com/nahichevanski/proto-budget v0.0.11
	gitlab.com/nahichevanski/proto-sso v0.0.9
	google.golang.org/grpc v1.64.0
	google.golang.org/protobuf v1.34.2
)

require (
	github.com/BurntSushi/toml v1.2.1 // indirect
	github.com/asaskevich/govalidator v0.0.0-20230301143203-a9d515a09cc2 // indirect
	github.com/bytedance/sonic v1.11.8 // indirect
	github.com/bytedance/sonic/loader v0.1.1 // indirect
	github.com/cloudwego/base64x v0.1.4 // indirect
	github.com/cloudwego/iasm v0.2.0 // indirect
	github.com/gabriel-vasile/mimetype v1.4.4 // indirect
	github.com/gin-contrib/sse v0.1.0 // indirect
	github.com/go-playground/locales v0.14.1 // indirect
	github.com/go-playground/universal-translator v0.18.1 // indirect
	github.com/go-playground/validator/v10 v10.22.0 // indirect
	github.com/goccy/go-json v0.10.3 // indirect
	github.com/golang/protobuf v1.5.4 // indirect
	github.com/json-iterator/go v1.1.12 // indirect
	github.com/klauspost/cpuid/v2 v2.2.8 // indirect
	github.com/leodido/go-urn v1.4.0 // indirect
	github.com/mattn/go-colorable v0.1.13 // indirect
	github.com/mattn/go-isatty v0.0.20 // indirect
	github.com/modern-go/concurrent v0.0.0-20180306012644-bacd9c7ef1dd // indirect
	github.com/modern-go/reflect2 v1.0.2 // indirect
	github.com/pelletier/go-toml/v2 v2.2.2 // indirect
	github.com/twitchyliquid64/golang-asm v0.15.1 // indirect
	github.com/ugorji/go/codec v1.2.12 // indirect
	golang.org/x/arch v0.8.0 // indirect
	golang.org/x/crypto v0.24.0 // indirect
	golang.org/x/net v0.26.0 // indirect
	golang.org/x/sys v0.21.0 // indirect
	golang.org/x/text v0.16.0 // indirect
	google.golang.org/genproto/googleapis/rpc v0.0.0-20240318140521-94a12d6c2237 // indirect
	gopkg.in/yaml.v3 v3.0.1 // indirect
	olympos.io/encoding/edn v0.0.0-20201019073823-d3554ca0b0a3 // indirect
)
